{
  "project_info": {
    "project_number": "339052300529",
    "project_id": "btu-final-exams",
    "storage_bucket": "btu-final-exams.appspot.com"
  },
  "client": [
    {
      "client_info": {
        "mobilesdk_app_id": "1:339052300529:android:ce0df96f9234fd5d100150",
        "android_client_info": {
          "package_name": "com.example.nagdiqartulebi"
        }
      },
      "oauth_client": [
        {
          "client_id": "339052300529-3vj0r634alnvkvnvque42ov50drqthur.apps.googleusercontent.com",
          "client_type": 3
        }
      ],
      "api_key": [
        {
          "current_key": "AIzaSyBanFVGhZA44oSlKNAXuiehMxGxfURGBRc"
        }
      ],
      "services": {
        "appinvite_service": {
          "other_platform_oauth_client": [
            {
              "client_id": "339052300529-3vj0r634alnvkvnvque42ov50drqthur.apps.googleusercontent.com",
              "client_type": 3
            }
          ]
        }
      }
    }
  ],
  "configuration_version": "1"
}